id;aetitle;nombre_dicom;study_instance_root;activo;worklistDisponible;id_sala;id_modalidad;id_institucion
27;DIRECT_DIGXRAY;DIRECT_DIGXRAY;1.2.826.0.1.3680043.9.67.1.23.1.;1;1;1;2;1
28;SSD3500;SSD3500;1.2.826.0.1.3680043.9.67.1.23.2.;1;1;2;1;1
29;ALPHA6;ALPHA6;1.2.826.0.1.3680043.9.67.1.23.3.;1;1;3;1;1
30;DEXA;DEXA;1.2.826.0.1.3680043.9.67.1.23.4.;1;1;4;6;1
31;IDC_QWL_SCU;IDC_QWL_SCU;1.2.826.0.1.3680043.9.67.1.23.5.;1;1;5;5;1
32;MXV;MXV;1.2.826.0.1.3680043.9.67.1.23.6.;1;1;6;4;1
33;MR;MR;1.2.826.0.1.3680043.9.67.1.23.7.;1;1;1;8;1
34;POC360;POC360;1.2.826.0.1.3680043.9.67.1.23.8.;1;1;2;5;1
