|id|;|cuposNecesarios|;|id_procedimiento|;|id_sala|
1380;1;1383;13
1381;1;1304;13
1382;1;1273;13
1383;1;1274;13
1384;1;1275;13
1385;1;1276;13
1386;1;1277;13
1387;1;1278;13
1388;1;1279;13
1389;1;1280;13
1390;1;1285;13
1391;1;1286;13
1392;1;1287;13
1393;1;1288;13
1394;1;1289;13
1395;1;1290;13
1396;1;1291;13
1397;1;1292;13
1398;1;1263;13
1399;1;1264;13
1400;1;1266;13
1401;1;1267;13
1402;1;1269;13
1403;1;1271;13
1404;1;1272;13
1405;1;1281;13
1406;1;1283;13
1407;1;1284;13
1408;1;1293;13
1409;1;1294;13
1410;1;1295;13
1411;1;1296;13
1412;1;1297;13
1413;1;1298;13
1414;1;1299;13
1415;1;1300;13
1416;1;1301;13
1417;1;1302;13
1418;1;1305;13
1419;1;1306;13
1420;1;1307;13
1421;1;1309;13
1422;1;1310;13
1423;1;1311;13
1424;1;1312;13
1425;1;1317;13
1426;1;1322;13
1427;1;1323;13
1428;1;1325;13
1429;1;1328;13
1430;1;1333;13
1431;1;1335;13
1432;1;1336;13
1433;1;1343;13
1434;1;1345;13
1435;1;1347;13
1436;1;1349;13
1437;1;1351;13
1438;1;1357;13
1439;1;1359;13
1440;1;1360;13
1441;1;1365;13
1442;1;1308;13
1443;1;1313;13
1444;1;1314;13
1445;1;1315;13
1446;1;1316;13
1447;1;1320;13
1448;1;1321;13
1449;1;1319;13
1450;1;1326;13
1451;1;1327;13
1452;1;1329;13
1453;1;1330;13
1454;1;1331;13
1455;1;1332;13
1456;1;1337;13
1457;1;1338;13
1458;1;1339;13
1459;1;1340;13
1460;1;1341;13
1461;1;1342;13
1462;1;1350;13
1463;1;1352;13
1464;1;1353;13
1465;1;1354;13
1466;1;1355;13
1467;1;1344;13
1468;1;1348;13
1469;1;1356;13
1470;1;1358;13
1471;1;1282;13
1472;1;1265;13
1473;1;1367;13
1474;1;1368;13
1475;1;1369;13
1476;1;1370;13
1477;1;1366;13
1478;1;1371;13
1479;1;1372;13
1480;1;1373;13
1481;1;1374;13
1482;1;1375;13
1483;1;1376;13
1484;1;1377;13
1485;1;1378;13
1486;1;1379;13
1487;1;1380;13
1488;1;1381;13
1489;1;1382;13
1490;1;1384;13
1491;1;1385;13
1492;1;1386;13
1493;1;1387;13
1494;1;1346;13
1495;1;1361;13
1496;1;1362;13
1497;1;1363;13
1498;1;1303;13
1499;1;1268;13
1500;1;1324;13
1501;1;1364;13
1502;1;1270;13
1503;1;1334;13
1504;1;1318;13
1505;1;1066;13
1560;1;1560;15
1562;1;1260;15
1563;1;1262;15
1564;1;1081;15
1565;1;1261;15
1568;1;1062;16
1569;1;1388;17
1570;1;1391;17
1571;1;1513;17
1572;1;1392;17
1573;1;1393;17
1574;1;1394;17
1575;1;1389;17
1576;1;1551;17
1577;1;1401;17
1578;1;1403;17
1579;1;1400;17
1580;1;1398;17
1581;1;1402;17
1582;1;1399;17
1583;1;1484;17
1584;1;1404;17
1585;1;1407;17
1586;1;1405;17
1587;1;1406;17
1588;1;1408;17
1589;1;1409;17
1590;1;1410;17
1591;1;1411;17
1592;1;1413;17
1593;1;1414;17
1594;1;1415;17
1595;1;1417;17
1596;1;1418;17
1597;1;1419;17
1598;1;1420;17
1599;1;1421;17
1600;1;1422;17
1601;1;1424;17
1602;1;1425;17
1603;1;1426;17
1604;1;1423;17
1605;1;1427;17
1606;1;1430;17
1607;1;1431;17
1608;1;1433;17
1609;1;1435;17
1610;1;1436;17
1611;1;1437;17
1612;1;1438;17
1613;1;1439;17
1614;1;1441;17
1615;1;1434;17
1616;1;1446;17
1617;1;1447;17
1618;1;1442;17
1619;1;1443;17
1620;1;1444;17
1621;1;1448;17
1622;1;1449;17
1623;1;1450;17
1624;1;1453;17
1625;1;1454;17
1626;1;1455;17
1627;1;1456;17
1628;1;1460;17
1629;1;1461;17
1630;1;1462;17
1631;1;1457;17
1632;1;1459;17
1633;1;1466;17
1634;1;1467;17
1635;1;1468;17
1636;1;1469;17
1637;1;1465;17
1638;1;1471;17
1639;1;1472;17
1640;1;1473;17
1641;1;1474;17
1642;1;1475;17
1643;1;1476;17
1644;1;1477;17
1645;1;1478;17
1646;1;1479;17
1647;1;1485;17
1648;1;1481;17
1649;1;1482;17
1650;1;1486;17
1651;1;1483;17
1652;1;1487;17
1653;1;1488;17
1654;1;1490;17
1655;1;1489;17
1656;1;1491;17
1657;1;1494;17
1658;1;1495;17
1659;1;1496;17
1660;1;1497;17
1661;1;1498;17
1662;1;1499;17
1663;1;1500;17
1664;1;1501;17
1665;1;1502;17
1666;1;1503;17
1667;1;1504;17
1668;1;1505;17
1669;1;1506;17
1670;1;1507;17
1671;1;1510;17
1672;1;1511;17
1673;1;1512;17
1674;1;1508;17
1675;1;1514;17
1676;1;1518;17
1677;1;1428;17
1678;1;1463;17
1679;1;1429;17
1680;1;1519;17
1681;1;1515;17
1682;1;1516;17
1683;1;1517;17
1684;1;1520;17
1685;1;1521;17
1686;1;1522;17
1687;1;1525;17
1688;1;1526;17
1689;1;1524;17
1690;1;1523;17
1691;1;1529;17
1692;1;1530;17
1693;1;1531;17
1694;1;1532;17
1695;1;1533;17
1696;1;1534;17
1697;1;1535;17
1698;1;1536;17
1699;1;1537;17
1700;1;1538;17
1701;1;1539;17
1702;1;1541;17
1703;1;1540;17
1704;1;1542;17
1705;1;1543;17
1706;1;1544;17
1707;1;1545;17
1708;1;1547;17
1709;1;1548;17
1710;1;1480;17
1711;1;1464;17
1712;1;1412;17
1713;1;1396;17
1714;1;1397;17
1715;1;1550;17
1716;1;1549;17
1717;1;1440;17
1718;1;1416;17
1719;1;1432;17
1720;1;1395;17
1721;1;1546;17
1722;1;1445;17
1723;1;1492;17
1724;1;1493;17
1725;1;1458;17
1726;1;1527;17
1727;1;1528;17
1728;1;1390;17
1729;1;1509;17
1732;1;1055;17
1736;1;1626;17
1738;1;1078;17
1739;1;1060;17
1740;1;1021;17
1742;1;1035;17
1743;1;1067;17
1744;1;1037;17
1745;1;1054;17
1746;1;1584;17
1747;1;1080;17
1748;1;1084;18
1749;1;1085;18
1750;1;1086;18
1751;1;1087;18
1752;1;1088;18
1753;1;1089;18
1754;1;1090;18
1755;1;1091;18
1756;1;1092;18
1757;1;1093;18
1758;1;1094;18
1759;1;1095;18
1760;1;1096;18
1761;1;1097;18
1762;1;1098;18
1763;1;1099;18
1764;1;1100;18
1765;1;1106;18
1766;1;1101;18
1767;1;1102;18
1768;1;1103;18
1769;1;1104;18
1770;1;1105;18
1771;1;1107;18
1772;1;1108;18
1773;1;1109;18
1774;1;1110;18
1775;1;1111;18
1776;1;1112;18
1777;1;1113;18
1778;1;1114;18
1779;1;1115;18
1780;1;1116;18
1781;1;1117;18
1782;1;1118;18
1783;1;1119;18
1784;1;1120;18
1785;1;1121;18
1786;1;1122;18
1787;1;1123;18
1788;1;1124;18
1789;1;1126;18
1790;1;1127;18
1791;1;1128;18
1792;1;1129;18
1793;1;1130;18
1794;1;1131;18
1795;1;1132;18
1796;1;1133;18
1797;1;1134;18
1798;1;1135;18
1799;1;1136;18
1800;1;1137;18
1801;1;1138;18
1802;1;1139;18
1803;1;1140;18
1804;1;1141;18
1805;1;1142;18
1806;1;1143;18
1807;1;1144;18
1808;1;1145;18
1809;1;1146;18
1810;1;1147;18
1811;1;1148;18
1812;1;1149;18
1813;1;1150;18
1814;1;1151;18
1815;1;1152;18
1816;1;1154;18
1817;1;1155;18
1818;1;1156;18
1819;1;1158;18
1820;1;1159;18
1821;1;1160;18
1822;1;1161;18
1823;1;1162;18
1824;1;1163;18
1825;1;1165;18
1826;1;1166;18
1827;1;1167;18
1828;1;1168;18
1829;1;1170;18
1830;1;1171;18
1831;1;1172;18
1832;1;1173;18
1833;1;1174;18
1834;1;1175;18
1835;1;1176;18
1836;1;1177;18
1837;1;1178;18
1838;1;1179;18
1839;1;1180;18
1840;1;1181;18
1841;1;1182;18
1842;1;1183;18
1843;1;1184;18
1844;1;1185;18
1845;1;1186;18
1846;1;1187;18
1847;1;1188;18
1848;1;1189;18
1849;1;1190;18
1850;1;1191;18
1851;1;1192;18
1852;1;1193;18
1853;1;1194;18
1854;1;1195;18
1855;1;1196;18
1856;1;1197;18
1857;1;1200;18
1858;1;1202;18
1859;1;1203;18
1860;1;1204;18
1861;1;1205;18
1862;1;1206;18
1863;1;1207;18
1864;1;1157;18
1865;1;1201;18
1866;1;1199;18
1867;1;1169;18
1868;1;1125;18
1869;1;1022;18
1870;1;1050;18
1871;1;1033;18
1872;1;1586;18
1873;1;1023;18
1874;1;1625;18
1875;1;1079;18
1876;1;1222;14
1877;1;1224;14
1878;1;1227;14
1879;1;1229;14
1880;1;1231;14
1881;1;1233;14
1882;1;1234;14
1883;1;1235;14
1884;1;1237;14
1885;1;1238;14
1886;1;1239;14
1887;1;1243;14
1888;1;1215;14
1889;1;1216;14
1890;1;1218;14
1891;1;1219;14
1892;1;1244;14
1893;1;1247;14
1894;1;1248;14
1895;1;1249;14
1896;1;1251;14
1897;1;1252;14
1898;1;1253;14
1899;1;1254;14
1900;1;1255;14
1901;1;1220;14
1902;1;1223;14
1903;1;1225;14
1904;1;1230;14
1905;1;1226;14
1906;1;1232;14
1907;1;1241;14
1908;1;1256;14
1909;1;1242;14
1910;1;1246;14
1911;1;1228;14
1912;1;1245;14
1913;1;1214;14
1914;1;1221;14
1915;1;1236;14
1916;1;1250;14
1917;1;1056;14
1918;1;1610;14
1919;1;1648;14
1920;1;1647;14
1921;1;1701;18
