id_procedimiento;id_paso
178;3
179;3
180;3
181;3
182;3
183;3
184;3
185;3
186;3
187;3
188;3
189;3
190;3
191;3
192;3
193;3
194;3
195;3
196;3
197;3
198;3
199;3
200;3
201;3
202;3
203;3
204;3
205;3
206;3
207;3
208;3
209;3
210;3
211;3
212;3
213;3
214;3
215;3
216;3
217;3
218;3
219;3
220;3
221;3
222;3
223;3
224;3
225;3
226;3
227;3
228;3
229;3
230;3
231;3
232;3
233;3
234;3
235;3
236;3
237;3
238;3
239;3
240;3
241;3
242;3
243;3
244;3
245;3
246;3
247;3
248;3
249;3
250;3
251;3
252;3
253;3
254;3
255;3
256;3
257;3
258;3
259;3
260;3
261;3
262;3
263;3
264;3
265;3
266;3
267;3
268;3
269;3
270;3
271;3
272;3
273;3
274;3
275;3
276;3
277;3
278;3
279;3
280;3
281;3
282;3
283;3
284;3
285;3
286;3
287;3
288;3
289;3
290;3
291;3
292;3
293;3
294;3
295;3
296;3
297;3
298;3
299;3
300;3
301;3
302;3
481;1
482;1
483;1
484;1
485;1
486;1
487;1
488;1
489;1
490;1
491;1
492;1
493;1
494;1
495;1
496;1
497;1
498;1
499;1
500;1
501;1
502;1
503;1
504;1
505;1
506;1
507;1
508;1
509;1
510;1
511;1
512;1
513;1
514;1
515;1
516;1
517;1
518;1
519;1
520;1
521;1
522;1
523;1
524;1
525;1
526;1
527;1
528;1
529;1
530;1
531;1
532;1
533;7
534;7
535;7
536;7
537;7
538;7
539;7
540;7
541;7
542;3
543;7
544;7
545;7
546;7
547;7
548;7
549;7
550;7
551;7
552;7
553;7
554;7
555;7
556;7
557;7
558;7
559;7
560;7
561;7
562;7
563;7
564;7
565;7
566;7
567;7
568;7
569;7
570;7
571;7
572;7
573;7
574;7
575;7
576;7
577;7
578;7
579;7
580;7
581;7
582;7
583;7
585;3
589;2
590;2
591;2
592;2
593;2
594;2
595;2
596;2
597;2
598;6
599;8
600;8
601;8
602;8
603;8
604;8
605;8
606;8
607;8
608;8
609;8
610;8
611;8
612;8
613;8
614;8
615;8
616;8
617;8
618;8
619;8
620;8
621;8
622;8
623;8
624;8
625;8
626;8
627;8
628;8
629;8
630;8
631;8
632;8
633;8
634;8
635;8
636;8
637;8
638;8
639;8
640;8
641;8
642;8
643;8
644;8
645;8
646;8
647;8
648;8
649;8
650;8
651;8
652;8
653;8
654;8
655;8
656;8
657;8
658;8
659;8
660;8
661;8
662;8
663;8
664;8
665;8
666;8
667;8
668;8
669;8
670;8
671;8
672;8
673;8
674;8
675;8
676;8
677;8
678;8
679;8
680;8
681;8
682;8
683;8
684;8
685;8
686;8
687;8
688;8
689;8
690;8
691;8
692;8
693;8
694;8
695;8
696;8
697;8
698;8
699;8
700;8
701;8
702;8
703;8
704;8
705;8
706;8
707;8
708;8
709;8
710;8
711;8
712;8
713;8
714;8
715;8
716;8
717;8
718;8
719;8
720;8
721;8
722;8
723;8
724;8
725;8
726;4
727;4
728;4
729;4
730;4
731;4
732;4
733;4
734;4
735;4
736;4
737;4
738;4
739;4
740;4
741;4
742;4
743;4
744;4
745;4
746;4
747;4
748;4
749;4
750;4
751;4
752;4
753;4
754;4
755;4
756;4
757;4
758;4
759;4
760;4
761;4
762;4
763;4
764;4
765;4
766;4
767;4
768;4
769;4
770;4
771;4
772;4
773;4
774;4
775;4
776;4
777;4
778;4
779;4
780;4
781;4
782;4
783;4
784;4
785;4
786;4
787;4
788;4
789;4
790;4
791;4
792;4
793;4
794;4
795;4
796;4
797;4
798;4
799;4
800;4
801;4
802;4
803;4
804;4
805;4
806;4
807;4
808;4
809;4
810;4
811;4
812;4
813;4
814;4
815;4
816;4
817;4
818;4
819;4
820;4
821;4
822;4
823;4
824;4
825;4
826;4
827;4
828;4
829;4
830;4
831;4
832;4
833;4
834;4
835;4
836;4
837;4
838;4
839;4
840;4
841;4
842;4
843;4
844;4
845;4
846;4
847;4
848;4
849;4
850;4
851;4
852;4
853;4
854;4
855;4
856;4
857;4
858;4
859;4
860;4
861;4
862;4
863;4
864;4
865;4
866;4
867;4
868;4
869;4
870;4
871;4
872;4
873;4
874;4
875;4
876;4
877;4
878;4
879;4
880;4
881;4
882;4
883;4
884;4
885;4
886;4
887;4
888;4
889;4
890;4
891;4
892;4
893;4
894;4
895;4
896;4
897;4
898;4
899;4
900;4
901;4
902;4
903;4
904;4
905;8
906;8
907;3
1000;7
1001;4
1002;4
1003;4
1004;4
1005;4
1006;4
1007;4
1008;4
1009;7
1010;7
1011;7
1012;7
1013;7
1014;7
1015;7
1016;7
1017;7
1018;7
1019;7
1020;7
1021;4
1022;8
1023;8
1024;7
1025;9
1028;7
1029;7
1030;7
1031;7
1032;7
1033;8
1034;1
1035;4
1036;7
1037;4
1038;9
1039;9
1040;7
1041;7
1042;7
1043;7
1044;7
1045;7
1046;7
1047;7
1048;9
1049;4
1050;8
1051;7
1052;7
1053;7
1054;4
1055;4
1056;2
1058;4
1059;4
1060;4
1061;7
1062;6
1063;7
1064;7
1065;9
1066;7
1067;4
1068;7
1069;7
1070;7
1071;7
1072;7
1073;7
1074;7
1075;7
1076;7
1077;7
1078;4
1079;8
1080;4
1081;2
1082;1
1083;8
1084;8
1085;8
1086;8
1087;8
1088;8
1089;8
1090;8
1091;8
1092;8
1093;8
1094;8
1095;8
1096;8
1097;8
1098;8
1099;8
1100;8
1101;8
1102;8
1103;8
1104;8
1105;8
1106;8
1107;8
1108;8
1109;8
1110;8
1111;8
1112;8
1113;8
1114;8
1115;8
1116;8
1117;8
1118;8
1119;8
1120;8
1121;8
1122;8
1123;8
1124;8
1125;8
1126;8
1127;8
1128;8
1129;8
1130;8
1131;8
1132;8
1133;8
1134;8
1135;8
1136;8
1137;8
1138;8
1139;8
1140;8
1141;8
1142;8
1143;8
1144;8
1145;8
1146;8
1147;8
1148;8
1149;8
1150;8
1151;8
1152;8
1153;8
1154;8
1155;8
1156;8
1157;8
1158;8
1159;8
1160;8
1161;8
1162;8
1163;8
1164;8
1165;8
1166;8
1167;8
1168;8
1169;8
1170;8
1171;8
1172;8
1173;8
1174;8
1175;8
1176;8
1177;8
1178;8
1179;8
1180;8
1181;8
1182;8
1183;8
1184;8
1185;8
1186;8
1187;8
1188;8
1189;8
1190;8
1191;8
1192;8
1193;8
1194;8
1195;8
1196;8
1197;8
1198;8
1199;8
1200;8
1201;8
1202;8
1203;8
1204;8
1205;8
1206;8
1207;8
1208;8
1209;8
1210;2
1211;2
1212;9
1213;8
1214;1
1215;1
1216;1
1217;1
1218;1
1219;1
1220;1
1221;1
1222;1
1223;1
1224;1
1225;1
1226;1
1227;1
1228;1
1229;1
1230;1
1231;1
1232;1
1233;1
1234;1
1235;1
1236;1
1237;1
1238;1
1239;1
1240;1
1241;1
1242;1
1243;1
1244;1
1245;1
1246;1
1247;1
1248;1
1249;1
1250;1
1251;1
1252;1
1253;1
1254;1
1255;1
1256;1
1257;9
1258;9
1259;8
1260;2
1261;2
1262;2
1263;3
1264;3
1265;3
1266;3
1267;3
1268;3
1269;3
1270;3
1271;3
1272;3
1273;3
1274;3
1275;3
1276;3
1277;3
1278;3
1279;3
1280;3
1281;3
1282;3
1283;3
1284;3
1285;3
1286;3
1287;3
1288;3
1289;3
1290;3
1291;3
1292;3
1293;3
1294;3
1295;3
1296;3
1297;3
1298;3
1299;3
1300;3
1301;3
1302;3
1303;3
1304;3
1305;3
1306;3
1307;3
1308;3
1309;3
1310;3
1311;3
1312;3
1313;3
1314;3
1315;3
1316;3
1317;3
1318;3
1319;3
1320;3
1321;3
1322;3
1323;3
1324;3
1325;3
1326;3
1327;3
1328;3
1329;3
1330;3
1331;3
1332;3
1333;3
1334;3
1335;3
1336;3
1337;3
1338;3
1339;3
1340;3
1341;3
1342;3
1343;3
1344;3
1345;3
1346;3
1347;3
1348;3
1349;3
1350;3
1351;3
1352;3
1353;3
1354;3
1355;3
1356;3
1357;3
1358;3
1359;3
1360;3
1361;3
1362;3
1363;3
1364;3
1365;3
1366;3
1367;3
1368;3
1369;3
1370;3
1371;3
1372;3
1373;3
1374;3
1375;3
1376;3
1377;3
1378;3
1379;3
1380;3
1381;3
1382;3
1383;3
1384;3
1385;3
1386;3
1387;3
1388;4
1389;4
1390;4
1391;4
1392;4
1393;4
1394;4
1395;4
1396;4
1397;4
1398;4
1399;4
1400;4
1401;4
1402;4
1403;4
1404;4
1405;4
1406;4
1407;4
1408;4
1409;4
1410;4
1411;4
1412;4
1413;4
1414;4
1415;4
1416;4
1417;4
1418;4
1419;4
1420;4
1421;4
1422;4
1423;4
1424;4
1425;4
1426;4
1427;4
1428;4
1429;4
1430;4
1431;4
1432;4
1433;4
1434;4
1435;4
1436;4
1437;4
1438;4
1439;4
1440;4
1441;4
1442;4
1443;4
1444;4
1445;4
1446;4
1447;4
1448;4
1449;4
1450;4
1451;4
1452;4
1453;4
1454;4
1455;4
1456;4
1457;4
1458;4
1459;4
1460;4
1461;4
1462;4
1463;4
1464;4
1465;4
1466;4
1467;4
1468;4
1469;4
1470;4
1471;4
1472;4
1473;4
1474;4
1475;4
1476;4
1477;4
1478;4
1479;4
1480;4
1481;4
1482;4
1483;4
1484;4
1485;4
1486;4
1487;4
1488;4
1489;4
1490;4
1491;4
1492;4
1493;4
1494;4
1495;4
1496;4
1497;4
1498;4
1499;4
1500;4
1501;4
1502;4
1503;4
1504;4
1505;4
1506;4
1507;4
1508;4
1509;4
1510;4
1511;4
1512;4
1513;4
1514;4
1515;4
1516;4
1517;4
1518;4
1519;4
1520;4
1521;4
1522;4
1523;4
1524;4
1525;4
1526;4
1527;4
1528;4
1529;4
1530;4
1531;4
1532;4
1533;4
1534;4
1535;4
1536;4
1537;4
1538;4
1539;4
1540;4
1541;4
1542;4
1543;4
1544;4
1545;4
1546;4
1547;4
1548;4
1549;4
1550;4
1551;4
1552;2
1553;9
1554;7
1556;9
1557;7
1558;7
1559;4
1560;2
1561;9
1562;9
1563;9
1564;9
1565;9
1566;9
1567;9
1568;9
1569;9
1570;9
1571;9
1572;9
1573;9
1574;9
1575;9
1576;9
1577;9
1578;7
1579;1
1580;7
1581;7
1582;7
1583;7
1584;4
1585;9
1586;8
1588;9
1589;9
1590;7
1591;7
1592;9
1593;9
1594;9
1595;7
1596;9
1597;9
1598;9
1599;9
1600;9
1601;9
1604;7
1605;4
1606;4
1607;4
1608;4
1609;4
1610;2
1611;1
1612;1
1613;7
1614;9
1615;9
1616;9
1617;9
1618;9
1619;4
1620;8
1621;9
1623;7
1624;7
1625;8
1626;4
1631;9
1632;9
1633;9
1634;9
1635;8
1636;9
1637;9
1638;7
1639;7
1640;7
1641;9
1642;7
1643;9
1645;7
1646;7
1647;1
1648;1
1649;4
1650;4
1651;4
1652;4
1653;4
1654;4
1655;4
1656;4
1657;4
1658;4
1659;4
1660;4
1661;4
1662;4
1663;4
1664;4
1665;4
1666;4
1667;4
1668;4
1669;4
1670;4
1671;3
1672;3
1673;3
1674;3
1675;3
1676;3
1677;8
1678;8
1679;8
1680;4
1681;4
1682;4
1683;4
1684;4
1685;8
1686;8
1687;8
1688;8
1689;4
1690;4
1691;4
1692;4
1693;4
1694;4
1695;4
1696;4
1697;3
1698;3
1699;3
1700;3
1701;8
1702;3
1703;3
1704;3
1705;3
1706;3
1707;3
1708;3
1709;3
1710;3
1711;3
1712;3
1713;3
1714;3
